@startuml
    component "Pend. Magang" as pendaftaran_magang

    package "Auth Halaman Admin" {
        component "Verifikasi Pend. Magang" as verifikasi_pend_magang
        component "Proses Verifikasi" as proses_berifikasi
        interface "PENGAJUAN" as pengajuan
        interface "DITERIMA" as diterima
        interface "DITOLAK" as ditolak

        verifikasi_pend_magang->proses_berifikasi
        proses_berifikasi --> pengajuan
        proses_berifikasi --> diterima
        proses_berifikasi --> ditolak

        component "Notifikasi Email" as notifikasi_email
        diterima --> notifikasi_email
        ditolak --> notifikasi_email
    }
    component "Registrasi Akun" as registrasi_akun
    component "Login" as login
    pendaftaran_magang --> verifikasi_pend_magang
    notifikasi_email --> registrasi_akun
    registrasi_akun --> login

@enduml
